{
  "channels": [
    {
      "name": "ישראל פלוס",
      "link": "http://sw.gostreaming.tv:1935/live/smil:myStream.smil/playlist.m3u8"
    },
    {
      "name": "הערוץ הראשון",
      "link": "http://62.90.90.39/iba_channel-511MRepeat/_definst_/smil:channel-511M.high.smil/playlist.m3u8"
    },
    {
      "name": "ערוץ החדשות 2",
      "link": "http://keshethlslive-lh.akamaihd.net/i/c2n_1@195269/master.m3u8"
    },
    {
      "name": "ערוץ 2 קשת מראשון עד שלישי",
      "link": "http://keshethdioslive-i.akamaihd.net/hls/live/221630/CH2LIVE_HIGH/index.m3u8"
    },
    {
      "name": "ערוץ 2 רשת מרביעי עד שבת",
      "link": "http://reshet207788-i.akamaihd.net/hls/live/207509/live/encoder_index.m3u8"
    },
    {
      "name": "Brazzers TV Europe",
      "link": "http://super-pomoyka.us.to/trash/ttv-list/acelive/540_reg.acelive"
    },
    {
      "name": "Candy",
      "link": "http://super-pomoyka.us.to/trash/ttv-list/acelive/9094.acelive"
    },
    {
      "name": "Candyman",
      "link": "http://super-pomoyka.us.to/trash/ttv-list/acelive/9096.acelive"
    },
    {
      "name": "CentoXCento TV",
      "link": "http://super-pomoyka.us.to/trash/ttv-list/acelive/922_reg.acelive"
    },
    {
      "name": "Exotica TV",
      "link": "http://super-pomoyka.us.to/trash/ttv-list/acelive/919_reg.acelive"
    },
    {
      "name": "French Lover TV",
      "link": "http://super-pomoyka.us.to/trash/ttv-list/acelive/5847.acelive"
    },
    {
      "name": "Hustler HD",
      "link": "http://super-pomoyka.us.to/trash/ttv-list/acelive/789.acelive"
    },
    {
      "name": "Hustler TV",
      "link": "http://super-pomoyka.us.to/trash/ttv-list/acelive/115_reg.acelive"
    },
    {
      "name": "Nuart TV",
      "link": "http://super-pomoyka.us.to/trash/ttv-list/acelive/634_reg.acelive"
    },
    {
      "name": "O-la-la",
      "link": "http://super-pomoyka.us.to/trash/ttv-list/acelive/826_reg.acelive"
    },
    {
      "name": "Pink O TV",
      "link": "http://super-pomoyka.us.to/trash/ttv-list/acelive/925_reg.acelive"
    },
    {
      "name": "P layboy TV",
      "link": "http://super-pomoyka.us.to/trash/ttv-list/acelive/383_reg.acelive"
    },
    {
      "name": "SCT",
      "link": "http://super-pomoyka.us.to/trash/ttv-list/acelive/911_reg.acelive"
    },
    {
      "name": "Satisfaction HD",
      "link": "http://super-pomoyka.us.to/trash/ttv-list/acelive/924_reg.acelive"
    },
    {
      "name": "***tosenso",
      "link": "http://super-pomoyka.us.to/trash/ttv-list/acelive/622_reg.acelive"
    },
    {
      "name": "TGirls TV",
      "link": "http://super-pomoyka.us.to/trash/ttv-list/acelive/918_reg.acelive"
    },
    {
      "name": "XXL (",
      "link": "http://super-pomoyka.us.to/trash/ttv-list/acelive/10301.acelive"
    },
    {
      "name": "XXL",
      "link": "http://super-pomoyka.us.to/trash/ttv-list/acelive/659_reg.acelive"
    },
    {
      "name": "XX",
      "link": "http://super-pomoyka.us.to/trash/ttv-list/acelive/528_reg.acelive"
    },
    {
      "name": "XXX",
      "link": "http://super-pomoyka.us.to/trash/ttv-list/acelive/64_reg.acelive"
    },
    {
      "name": "XXX",
      "link": "http://super-pomoyka.us.to/trash/ttv-list/acelive/64_reg.acelive"
    },
    {
      "name": "Ностальгия",
      "link": "http://en356.edem.tv/iptv/5SWE52BWKZG5X2/102/index.m3u8"
    },
    {
      "name": "СТС Love",
      "link": "http://en356.edem.tv/iptv/5SWE52BWKZG5X2/103/index.m3u8"
    },
    {
      "name": "Комеди ТВ",
      "link": "http://en356.edem.tv/iptv/5SWE52BWKZG5X2/104/index.m3u8"
    },
    {
      "name": "STV",
      "link": "http://en356.edem.tv/iptv/5SWE52BWKZG5X2/105/index.m3u8"
    },
    {
      "name": "РБК-ТВ",
      "link": "http://en356.edem.tv/iptv/5SWE52BWKZG5X2/106/index.m3u8"
    },
    {
      "name": "СПОРТ ПЛЮС",
      "link": "http://en356.edem.tv/iptv/5SWE52BWKZG5X2/107/index.m3u8"
    },
    {
      "name": "Tiji TV",
      "link": "http://en356.edem.tv/iptv/5SWE52BWKZG5X2/108/index.m3u8"
    },
    {
      "name": "Gulli",
      "link": "http://en356.edem.tv/iptv/5SWE52BWKZG5X2/109/index.m3u8"
    },
    {
      "name": "Кинорейс 2",
      "link": "http://en356.edem.tv/iptv/5SWE52BWKZG5X2/110/index.m3u8"
    },
    {
      "name": "История",
      "link": "http://en356.edem.tv/iptv/5SWE52BWKZG5X2/111/index.m3u8"
    },
    {
      "name": "Пятый Канал",
      "link": "http://en356.edem.tv/iptv/5SWE52BWKZG5X2/112/index.m3u8"
    },
    {
      "name": "Мир",
      "link": "http://en356.edem.tv/iptv/5SWE52BWKZG5X2/113/index.m3u8"
    },
    {
      "name": "Nick Jr",
      "link": "http://en356.edem.tv/iptv/5SWE52BWKZG5X2/114/index.m3u8"
    },
    {
      "name": "Европа Плюс",
      "link": "http://en356.edem.tv/iptv/5SWE52BWKZG5X2/115/index.m3u8"
    },
    {
      "name": "МУЗ",
      "link": "http://en356.edem.tv/iptv/5SWE52BWKZG5X2/116/index.m3u8"
    },
    {
      "name": "Моя Планета",
      "link": "http://en356.edem.tv/iptv/5SWE52BWKZG5X2/117/index.m3u8"
    },
    {
      "name": "Наука 2.0",
      "link": "http://en356.edem.tv/iptv/5SWE52BWKZG5X2/118/index.m3u8"
    },
    {
      "name": "Outdoor Channel",
      "link": "http://en356.edem.tv/iptv/5SWE52BWKZG5X2/119/index.m3u8"
    },
    {
      "name": "RUSONG TV",
      "link": "http://en356.edem.tv/iptv/5SWE52BWKZG5X2/120/index.m3u8"
    },
    {
      "name": "Сов. Секретно",
      "link": "http://en356.edem.tv/iptv/5SWE52BWKZG5X2/121/index.m3u8"
    },
    {
      "name": "ТНТ",
      "link": "http://en356.edem.tv/iptv/5SWE52BWKZG5X2/502/index.m3u8"
    },
    {
      "name": "Пятница",
      "link": "http://en356.edem.tv/iptv/5SWE52BWKZG5X2/503/index.m3u8"
    },
    {
      "name": "Телеканал «Россия»",
      "link": "http://en356.edem.tv/iptv/5SWE52BWKZG5X2/504/index.m3u8"
    },
    {
      "name": "Россия-Культура",
      "link": "http://en356.edem.tv/iptv/5SWE52BWKZG5X2/505/index.m3u8"
    },
    {
      "name": "СТС",
      "link": "http://en356.edem.tv/iptv/5SWE52BWKZG5X2/506/index.m3u8"
    },
    {
      "name": "Россия-24",
      "link": "http://en356.edem.tv/iptv/5SWE52BWKZG5X2/507/index.m3u8"
    },
    {
      "name": "ТВ3",
      "link": "http://en356.edem.tv/iptv/5SWE52BWKZG5X2/508/index.m3u8"
    },
    {
      "name": "КИНОСОЮЗ",
      "link": "http://en356.edem.tv/iptv/5SWE52BWKZG5X2/509/index.m3u8"
    },
    {
      "name": "Bridge TV",
      "link": "http://en356.edem.tv/iptv/5SWE52BWKZG5X2/122/index.m3u8"
    },
    {
      "name": "НТВ-ПЛЮС Спорт",
      "link": "http://en356.edem.tv/iptv/5SWE52BWKZG5X2/123/index.m3u8"
    },
    {
      "name": "НТВ-ПЛЮС Футбол",
      "link": "http://en356.edem.tv/iptv/5SWE52BWKZG5X2/124/index.m3u8"
    },
    {
      "name": "Премьера",
      "link": "http://en356.edem.tv/iptv/5SWE52BWKZG5X2/125/index.m3u8"
    },
    {
      "name": "Наше Кино",
      "link": "http://en356.edem.tv/iptv/5SWE52BWKZG5X2/126/index.m3u8"
    },
    {
      "name": "Первый канал",
      "link": "http://en356.edem.tv/iptv/5SWE52BWKZG5X2/127/index.m3u8"
    },
    {
      "name": "РЕН ТВ",
      "link": "http://en356.edem.tv/iptv/5SWE52BWKZG5X2/128/index.m3u8"
    },
    {
      "name": "Первый HD",
      "link": "http://en356.edem.tv/iptv/5SWE52BWKZG5X2/204/index.m3u8"
    },
    {
      "name": "TV1000 Premium HD",
      "link": "http://en356.edem.tv/iptv/5SWE52BWKZG5X2/202/index.m3u8"
    },
    {
      "name": "Кинохит",
      "link": "http://en356.edem.tv/iptv/5SWE52BWKZG5X2/516/index.m3u8"
    },
    {
      "name": "Наш футбол",
      "link": "http://en356.edem.tv/iptv/5SWE52BWKZG5X2/531/index.m3u8"
    },
    {
      "name": "Nickelodeon",
      "link": "http://en356.edem.tv/iptv/5SWE52BWKZG5X2/541/index.m3u8"
    },
    {
      "name": "Disney",
      "link": "http://en356.edem.tv/iptv/5SWE52BWKZG5X2/524/index.m3u8"
    },
    {
      "name": "Amedia 2",
      "link": "http://en356.edem.tv/iptv/5SWE52BWKZG5X2/510/index.m3u8"
    },
    {
      "name": "24 ДОК",
      "link": "http://en356.edem.tv/iptv/5SWE52BWKZG5X2/512/index.m3u8"
    },
    {
      "name": "Перец",
      "link": "http://en356.edem.tv/iptv/5SWE52BWKZG5X2/513/index.m3u8"
    },
    {
      "name": "Домашний",
      "link": "http://en356.edem.tv/iptv/5SWE52BWKZG5X2/514/index.m3u8"
    },
    {
      "name": "ТНВ-Планета",
      "link": "http://en356.edem.tv/iptv/5SWE52BWKZG5X2/515/index.m3u8"
    },
    {
      "name": "Наше новое кино",
      "link": "http://en356.edem.tv/iptv/5SWE52BWKZG5X2/517/index.m3u8"
    },
    {
      "name": "KHL",
      "link": "http://en356.edem.tv/iptv/5SWE52BWKZG5X2/519/index.m3u8"
    },
    {
      "name": "ТВЦ",
      "link": "http://en356.edem.tv/iptv/5SWE52BWKZG5X2/520/index.m3u8"
    },
    {
      "name": "НТВ-ПЛЮС Футбол 3",
      "link": "http://en356.edem.tv/iptv/5SWE52BWKZG5X2/522/index.m3u8"
    },
    {
      "name": "Москва 24",
      "link": "http://en356.edem.tv/iptv/5SWE52BWKZG5X2/523/index.m3u8"
    },
    {
      "name": "TV XXI",
      "link": "http://en356.edem.tv/iptv/5SWE52BWKZG5X2/525/index.m3u8"
    },
    {
      "name": "Эгоист",
      "link": "http://en356.edem.tv/iptv/5SWE52BWKZG5X2/526/index.m3u8"
    },
    {
      "name": "Playboy",
      "link": "http://en356.edem.tv/iptv/5SWE52BWKZG5X2/527/index.m3u8"
    },
    {
      "name": "Телеканал Да Винчи",
      "link": "http://en356.edem.tv/iptv/5SWE52BWKZG5X2/537/index.m3u8"
    },
    {
      "name": "Авто 24",
      "link": "http://en356.edem.tv/iptv/5SWE52BWKZG5X2/538/index.m3u8"
    },
    {
      "name": "Eurosport 2",
      "link": "http://en356.edem.tv/iptv/5SWE52BWKZG5X2/539/index.m3u8"
    },
    {
      "name": "CBS Drama",
      "link": "http://en356.edem.tv/iptv/5SWE52BWKZG5X2/542/index.m3u8"
    },
    {
      "name": "Детский мир",
      "link": "http://en356.edem.tv/iptv/5SWE52BWKZG5X2/543/index.m3u8"
    },
    {
      "name": "НТВ Мир",
      "link": "http://en356.edem.tv/iptv/5SWE52BWKZG5X2/544/index.m3u8"
    },
    {
      "name": "НТВ Теннис",
      "link": "http://en356.edem.tv/iptv/5SWE52BWKZG5X2/528/index.m3u8"
    },
    {
      "name": "НТВ Баскетбол",
      "link": "http://en356.edem.tv/iptv/5SWE52BWKZG5X2/529/index.m3u8"
    },
    {
      "name": "НТВ Футбол 2",
      "link": "http://en356.edem.tv/iptv/5SWE52BWKZG5X2/530/index.m3u8"
    },
    {
      "name": "Ю ТВ",
      "link": "http://en356.edem.tv/iptv/5SWE52BWKZG5X2/534/index.m3u8"
    },
    {
      "name": "Россия 2",
      "link": "http://en356.edem.tv/iptv/5SWE52BWKZG5X2/535/index.m3u8"
    },
    {
      "name": "Nat Geo Wild",
      "link": "http://en356.edem.tv/iptv/5SWE52BWKZG5X2/133/index.m3u8"
    },
    {
      "name": "nat geographic",
      "link": "http://en356.edem.tv/iptv/5SWE52BWKZG5X2/134/index.m3u8"
    },
    {
      "name": "Discovery World",
      "link": "http://en356.edem.tv/iptv/5SWE52BWKZG5X2/135/index.m3u8"
    },
    {
      "name": "Discovery Science",
      "link": "http://en356.edem.tv/iptv/5SWE52BWKZG5X2/136/index.m3u8"
    },
    {
      "name": "Animal Planet",
      "link": "http://en356.edem.tv/iptv/5SWE52BWKZG5X2/137/index.m3u8"
    },
    {
      "name": "Jim Jam",
      "link": "http://en356.edem.tv/iptv/5SWE52BWKZG5X2/138/index.m3u8"
    },
    {
      "name": "Investigation Discovery",
      "link": "http://en356.edem.tv/iptv/5SWE52BWKZG5X2/139/index.m3u8"
    },
    {
      "name": "Discovery Channel",
      "link": "http://en356.edem.tv/iptv/5SWE52BWKZG5X2/140/index.m3u8"
    },
    {
      "name": "Eurosport",
      "link": "http://en356.edem.tv/iptv/5SWE52BWKZG5X2/141/index.m3u8"
    },
    {
      "name": "MTV",
      "link": "http://en356.edem.tv/iptv/5SWE52BWKZG5X2/142/index.m3u8"
    },
    {
      "name": "Cartoon Network",
      "link": "http://en356.edem.tv/iptv/5SWE52BWKZG5X2/143/index.m3u8"
    },
    {
      "name": "Extreme Sports",
      "link": "http://en356.edem.tv/iptv/5SWE52BWKZG5X2/144/index.m3u8"
    },
    {
      "name": "Комедия",
      "link": "http://en356.edem.tv/iptv/5SWE52BWKZG5X2/145/index.m3u8"
    },
    {
      "name": "Индия ТВ",
      "link": "http://en356.edem.tv/iptv/5SWE52BWKZG5X2/146/index.m3u8"
    },
    {
      "name": "Русская Ночь",
      "link": "http://en356.edem.tv/iptv/5SWE52BWKZG5X2/147/index.m3u8"
    },
    {
      "name": "Много ТВ",
      "link": "http://en356.edem.tv/iptv/5SWE52BWKZG5X2/148/index.m3u8"
    },
    {
      "name": "Боец",
      "link": "http://en356.edem.tv/iptv/5SWE52BWKZG5X2/150/index.m3u8"
    },
    {
      "name": "Авто Плюс",
      "link": "http://en356.edem.tv/iptv/5SWE52BWKZG5X2/151/index.m3u8"
    },
    {
      "name": "Кухня ТВ",
      "link": "http://en356.edem.tv/iptv/5SWE52BWKZG5X2/152/index.m3u8"
    },
    {
      "name": "Հ1",
      "link": "http://en356.edem.tv/iptv/5SWE52BWKZG5X2/601/index.m3u8"
    },
    {
      "name": "Դար 21",
      "link": "http://en356.edem.tv/iptv/5SWE52BWKZG5X2/602/index.m3u8"
    },
    {
      "name": "Հ2",
      "link": "http://en356.edem.tv/iptv/5SWE52BWKZG5X2/603/index.m3u8"
    },
    {
      "name": "Շանթ",
      "link": "http://en356.edem.tv/iptv/5SWE52BWKZG5X2/604/index.m3u8"
    },
    {
      "name": "Արմենիա Tv HD",
      "link": "http://en356.edem.tv/iptv/5SWE52BWKZG5X2/605/index.m3u8"
    },
    {
      "name": "Կենտրոն",
      "link": "http://en356.edem.tv/iptv/5SWE52BWKZG5X2/606/index.m3u8"
    },
    {
      "name": "Lime tv",
      "link": "http://en356.edem.tv/iptv/5SWE52BWKZG5X2/607/index.m3u8"
    },
    {
      "name": "Երկիր մեդիա",
      "link": "http://en356.edem.tv/iptv/5SWE52BWKZG5X2/608/index.m3u8"
    },
    {
      "name": "ATV",
      "link": "http://en356.edem.tv/iptv/5SWE52BWKZG5X2/609/index.m3u8"
    },
    {
      "name": "Ար",
      "link": "http://en356.edem.tv/iptv/5SWE52BWKZG5X2/610/index.m3u8"
    },
    {
      "name": "Արմնյուզ",
      "link": "http://en356.edem.tv/iptv/5SWE52BWKZG5X2/611/index.m3u8"
    },
    {
      "name": "Հ3",
      "link": "http://en356.edem.tv/iptv/5SWE52BWKZG5X2/612/index.m3u8"
    },
    {
      "name": "Շողակաթ",
      "link": "http://en356.edem.tv/iptv/5SWE52BWKZG5X2/613/index.m3u8"
    },
    {
      "name": "РТР Планета",
      "link": "http://en356.edem.tv/iptv/5SWE52BWKZG5X2/546/index.m3u8"
    },
    {
      "name": "Русский Иллюзион",
      "link": "http://en356.edem.tv/iptv/5SWE52BWKZG5X2/547/index.m3u8"
    },
    {
      "name": "Иллюзион +",
      "link": "http://en356.edem.tv/iptv/5SWE52BWKZG5X2/548/index.m3u8"
    },
    {
      "name": "Еврокино",
      "link": "http://en356.edem.tv/iptv/5SWE52BWKZG5X2/549/index.m3u8"
    },
    {
      "name": "Fox Russia",
      "link": "http://en356.edem.tv/iptv/5SWE52BWKZG5X2/550/index.m3u8"
    },
    {
      "name": "Время",
      "link": "http://en356.edem.tv/iptv/5SWE52BWKZG5X2/552/index.m3u8"
    },
    {
      "name": "Fox Life",
      "link": "http://en356.edem.tv/iptv/5SWE52BWKZG5X2/553/index.m3u8"
    },
    {
      "name": "Արմենիա Tv",
      "link": "http://en356.edem.tv/iptv/5SWE52BWKZG5X2/614/index.m3u8"
    },
    {
      "name": "MTV Hits",
      "link": "http://en356.edem.tv/iptv/5SWE52BWKZG5X2/153/index.m3u8"
    },
    {
      "name": "Дом Кино",
      "link": "http://en356.edem.tv/iptv/5SWE52BWKZG5X2/154/index.m3u8"
    },
    {
      "name": "Музыка",
      "link": "http://en356.edem.tv/iptv/5SWE52BWKZG5X2/155/index.m3u8"
    },
    {
      "name": "Карусель",
      "link": "http://en356.edem.tv/iptv/5SWE52BWKZG5X2/156/index.m3u8"
    },
    {
      "name": "Paramount Comedy Russia",
      "link": "http://en356.edem.tv/iptv/5SWE52BWKZG5X2/157/index.m3u8"
    },
    {
      "name": "Домашние Животные",
      "link": "http://en356.edem.tv/iptv/5SWE52BWKZG5X2/158/index.m3u8"
    },
    {
      "name": "Охота и Рыбалка",
      "link": "http://en356.edem.tv/iptv/5SWE52BWKZG5X2/159/index.m3u8"
    },
    {
      "name": "Հ1 International",
      "link": "http://en356.edem.tv/iptv/5SWE52BWKZG5X2/615/index.m3u8"
    },
    {
      "name": "MTV.AM HD",
      "link": "http://en356.edem.tv/iptv/5SWE52BWKZG5X2/616/index.m3u8"
    },
    {
      "name": "MTV.AM",
      "link": "http://en356.edem.tv/iptv/5SWE52BWKZG5X2/617/index.m3u8"
    },
    {
      "name": "Amedia 1",
      "link": "http://en356.edem.tv/iptv/5SWE52BWKZG5X2/554/index.m3u8"
    },
    {
      "name": "Amedia Premium HD",
      "link": "http://en356.edem.tv/iptv/5SWE52BWKZG5X2/555/index.m3u8"
    },
    {
      "name": "TV1000 Comedy HD",
      "link": "http://en356.edem.tv/iptv/5SWE52BWKZG5X2/200/index.m3u8"
    },
    {
      "name": "TV1000 Megahit HD",
      "link": "http://en356.edem.tv/iptv/5SWE52BWKZG5X2/201/index.m3u8"
    },
    {
      "name": "Viasat Nature/History HD",
      "link": "http://en356.edem.tv/iptv/5SWE52BWKZG5X2/203/index.m3u8"
    },
    {
      "name": "Россия HD",
      "link": "http://en356.edem.tv/iptv/5SWE52BWKZG5X2/205/index.m3u8"
    }
  ]
}